name,updatedName,email,updatedEmail
newuser,newupdateduser,newuser@gmail.com,newupdateduser@gmail.com
,,newuser@gmail.com,newupdateduser@gmail.com
newuser,newupdateduser,,
!@#$%^&,!@#$%^&,%^&*HJJ,undefined
